[
  {
    "type" : "item",
    "material" : "ARROW",
    "amount" : 5,
    "chance" : 1.0
  },
  {
    "type" : "item",
    "material" : "BONE",
    "amount" : 1,
    "chance" : 1.0
  },
  {
    "type" : "exp",
    "percent_of_base" : 0.15
  }
]