[
  {
    "type" : "item",
    "material" : "RAW_BEEF",
    "amount" : 3,
    "chance" : 1.0
  },
  {
    "type" : "item",
    "material" : "COOKED_BEEF",
    "amount" : 1,
    "chance" : 0.1
  },
  {
    "type" : "item",
    "material" : "LEATHER",
    "amount" : 1,
    "chance" : 0.05
  }
]