[
  {
    "type" : "item",
    "material" : "RAW_BEEF",
    "amount" : 5,
    "chance" : 1.0
  },
  {
    "type" : "item",
    "material" : "COOKED_BEEF",
    "amount" : 1,
    "chance" : 0.50
  },
  {
    "type" : "item",
    "material" : "LEATHER",
    "amount" : 1,
    "chance" : 0.25
  },
  {
    "type" : "exp",
    "percent_of_base" : 0.25
  }
]