[
  {
    "type" : "item",
    "material" : "BLAZE_POWDER",
    "amount" : 2,
    "chance" : 1.0
  },
  {
    "type" : "item",
    "material" : "BLAZE_ROD",
    "amount" : 1,
    "chance" : 1.0
  },
  {
    "type" : "exp",
    "percent_of_base" : 0.15
  }
]