[
  {
    "type" : "item",
    "material" : "ENDER_PEARL",
    "amount" : 3,
    "chance" : 1.0
  },
  {
    "type" : "item",
    "material" : "EYE_OF_ENDER",
    "amount" : 1,
    "chance" : 0.05
  }
]